2020-12-30 20:43:39,987 - VK parser logger - WARNING - Слишком длинный запрос: API.users.search({"q":"Anton Ivanov","age_from":1,"age_to":124,"offset":0,"count":1000}).items@.id;i=i+
2020-12-30 20:44:40,723 - VK parser logger - WARNING - Слишком длинный запрос: API.users.search({"q":"Anton Ivanov","age_from":1,"age_to":124,"offset":0,"count":1000}).items@.id;i=i+
2021-01-12 15:56:40,328 - VK parser logger - WARNING - This profile is private, ВК метод: friends.get, параметры: {'user_id': 7086336, 'access_token': '42e8570d10b35b88d8f378360906d212d8f5c78a33cd3875a968ce4cbc0a057ff3c85eaf2c8f0c5d11706', 'v': '5.126'}
2021-01-12 15:56:58,419 - VK parser logger - WARNING - Слишком длинный запрос: API.users.search({"q":"Lyosha Vernadsky","age_from":1,"age_to":124,"offset":0,"count":1000}).items@.id;i=i+
2021-01-12 15:57:28,705 - VK parser logger - WARNING - Слишком длинный запрос: API.users.search({"q":"Lyosha Vernadsky","age_from":1,"age_to":124,"offset":0,"count":1000}).items@.id;i=i+
2021-01-12 15:58:36,966 - VK parser logger - WARNING - Слишком длинный запрос: API.users.search({"q":"Lyosha Vernadsky","age_from":1,"age_to":124,"offset":0,"count":1000}).items@.id;i=i+
2021-01-12 15:58:47,060 - VK parser logger - WARNING - Слишком длинный запрос: API.users.search({"q":"Lyosha Vernadsky","age_from":1,"age_to":124,"offset":0,"count":1000}).items@.id;i=i+
